// Jest Snapshot v1, https://goo.gl/fbAQLP

exports[`ProgressCircle should render without errors 1`] = `
.emotion-4 {
  width: 100%;
}

.emotion-0 {
  stroke-dasharray: 251.2,251.2;
  stroke-dashoffset: 0;
  stroke-linecap: round;
  stroke-width: 5;
  fill: none;
  -webkit-transition: stroke-dasharray 0.5s linear;
  transition: stroke-dasharray 0.5s linear;
}

.emotion-2 {
  stroke-dasharray: 251.2,251.2;
  stroke-dashoffset: 100.48;
  stroke-linecap: round;
  stroke-width: 5;
  fill: none;
  -webkit-transition: stroke-dasharray 0.5s linear;
  transition: stroke-dasharray 0.5s linear;
}

<ThemeProvider
  theme={
    Object {
      "colors": Object {
        "black": "rgba(4, 27, 21, 1)",
        "darkBlue": "rgba(42, 98, 143, 1)",
        "darkGrey": "rgba(54, 54, 53, 1)",
        "lightBlue": "rgba(104, 195, 199, 1)",
        "lightGrey": "rgba(235, 233, 233, 1)",
        "white": "rgba(255, 255, 250, 1)",
      },
      "defaultShadow": "0 1px 4px rgba(54, 54, 53, 1)",
    }
  }
>
  <ProgressCircle
    backgroundColor="red"
    percentage={60}
    strokeColor="blue"
    textColor="grey"
  >
    <Svg
      id="animated"
      viewBox="0 0 100 100"
    >
      <svg
        className="emotion-4 emotion-5"
        id="animated"
        viewBox="0 0 100 100"
      >
        <circle
          cx="50"
          cy="50"
          fill="red"
          r="45"
        />
        <Path
          d="M50 10 a 40 40 0 0 1 0 80 a 40 40 0 0 1 0 -80"
          percentage={100}
          stroke="rgba(0, 0, 0, 0.2)"
        >
          <path
            className="emotion-0 emotion-1"
            d="M50 10 a 40 40 0 0 1 0 80 a 40 40 0 0 1 0 -80"
            stroke="rgba(0, 0, 0, 0.2)"
          />
        </Path>
        <Path
          d="M50 10 a 40 40 0 0 1 0 80 a 40 40 0 0 1 0 -80"
          percentage={60}
          stroke="blue"
        >
          <path
            className="emotion-2 emotion-1"
            d="M50 10 a 40 40 0 0 1 0 80 a 40 40 0 0 1 0 -80"
            stroke="blue"
          />
        </Path>
        <text
          dy="10"
          fill="grey"
          fontSize="32"
          textAnchor="middle"
          x="50"
          y="50"
        >
          60
          %
        </text>
      </svg>
    </Svg>
  </ProgressCircle>
</ThemeProvider>
`;
